{
  "project_info": {
    "project_number": "30637808847",
    "firebase_url": "https://utopiic-242ae.firebaseio.com",
    "project_id": "utopiic-242ae",
    "storage_bucket": "utopiic-242ae.appspot.com"
  },
  "client": [
    {
      "client_info": {
        "mobilesdk_app_id": "1:30637808847:android:eb9c4c85b0e9fc4246abba",
        "android_client_info": {
          "package_name": "com.utopiic"
        }
      },
      "oauth_client": [
        {
          "client_id": "30637808847-da1u6ss319ct3hjmat71beqnbvt0c3o4.apps.googleusercontent.com",
          "client_type": 3
        }
      ],
      "api_key": [
        {
          "current_key": "AIzaSyB5dZ9fxu3if7LJEWvKGbpOP2H0RXGvAJw"
        }
      ],
      "services": {
        "appinvite_service": {
          "other_platform_oauth_client": [
            {
              "client_id": "30637808847-da1u6ss319ct3hjmat71beqnbvt0c3o4.apps.googleusercontent.com",
              "client_type": 3
            },
            {
              "client_id": "30637808847-5vjfjppbsjhbmm6ficqj041pnqj56r0i.apps.googleusercontent.com",
              "client_type": 2,
              "ios_info": {
                "bundle_id": "com.utopiic"
              }
            }
          ]
        }
      }
    }
  ],
  "configuration_version": "1"
}